Presentation Ninja
…
```r
lulusan_sd <- sak_leveled %>%
  #filter lulusan SD terlebih dahulu
  filter(ijazah == "SD setara") %>%
  # group berdasarkan jenis kelamin dan kabupaten 
  group_by(kode_kab, jk) %>%
  summarise(jumlah = sum(penimbang, na.rm = TRUE)) %>%
  ungroup()

lulusan_sd
```

```
## # A tibble: 1,014 × 3
##    kode_kab jk     jumlah
##    <fct>    <fct>   <int>
##  1 1101     pria    13103
##  2 1101     wanita    464
##  3 1102     pria     7178
##  4 1102     wanita   3523
##  5 1103     pria    20553
##  6 1103     wanita   2385
##  7 1104     pria     5146
##  8 1104     wanita   8222
##  9 1105     pria    19375
## 10 1105     wanita   9536
## # … with 1,004 more rows
```
…
# Mengubah bentuk data

- Pivot longer or pivot wider
- Apabila kita ingin menjadikan pria dan wanita menjadi kolom sendiri-sendiri, maka harus pivot wider

```r
lulusan_sd_wider <- lulusan_sd_joined %>%
  pivot_wider( names_from = "jk", values_from = "jumlah")

lulusan_sd_wider
```

```
## # A tibble: 511 × 4
##    KODE_KABB NAMA_KAB       pria wanita
##    <fct>     <fct>         <int>  <int>
##  1 1101      SIMEULUE      13103    464
##  2 1102      ACEH SINGKIL   7178   3523
##  3 1103      ACEH SELATAN  20553   2385
##  4 1104      ACEH TENGGARA  5146   8222
##  5 1105      ACEH TIMUR    19375   9536
##  6 1106      ACEH TENGAH    7555   8419
##  7 1107      ACEH BARAT     8715   4799
##  8 1108      ACEH BESAR    20196   3009
##  9 1109      PIDIE          9608   8920
## 10 1110      BIREUEN       19113   6156
## # … with 501 more rows
```

- Apabila kita ingin mengembalikan seperti semula

```r
lulusan_sd_longer <- lulusan_sd_wider %>%
  pivot_longer(c(-KODE_KABB, -NAMA_KAB),
               names_to = "jk",
               values_to = "jumlah")

lulusan_sd_longer
```

```
## # A tibble: 1,022 × 4
##    KODE_KABB NAMA_KAB      jk     jumlah
##    <fct>     <fct>         <chr>   <int>
##  1 1101      SIMEULUE      pria    13103
##  2 1101      SIMEULUE      wanita    464
##  3 1102      ACEH SINGKIL  pria     7178
##  4 1102      ACEH SINGKIL  wanita   3523
##  5 1103      ACEH SELATAN  pria    20553
##  6 1103      ACEH SELATAN  wanita   2385
##  7 1104      ACEH TENGGARA pria     5146
##  8 1104      ACEH TENGGARA wanita   8222
##  9 1105      ACEH TIMUR    pria    19375
## 10 1105      ACEH TIMUR    wanita   9536
## # … with 1,012 more rows
```
…
